{
    "Chicken" : {
        "name" : "Chicken",
        "count" : 1,
        "unit" : "lb",
        "serving" : 1,
        "servingUnit" : "breasts",
        "calories" : 748,
        "fat" : 16,
        "sodium": 336,
        "cholesterol": 384
    },

    "Egg" : {
        "name" : "Egg",
        "count" : 9,
        "unit" : "",
        "serving" : 2,
        "servingUnit" : "",
        "calories" : 99,
        "fat" : 7.6,
        "sodium": 100,
        "cholesterol": 193
    },

    "Onion" : {
        "name" : "Onion",
        "count" : 4,
        "unit" : "",
        "serving" : 1,
        "servingUnit" : "cups",
        "calories" : 60,
        "fat" : 0.1,
        "sodium": 10,
        "cholesterol": 0
    },

    "Strawberries" : {
        "name" : "Strawberries",
        "count" : 8,
        "unit" : "oz",
        "serving" : 4,
        "servingUnit" : "oz",
        "calories" : 50,
        "fat" : 0,
        "sodium": 0,
        "cholesterol": 0
    },

    "Avocado" : {
        "name" : "Avocado",
        "count" : 3,
        "unit" : "",
        "serving" : 1,
        "servingUnit" : "",
        "calories" : 227,
        "fat" : 20.9,
        "sodium": 11,
        "cholesterol": 0
    },

    "Milk" : {
        "name" : "Milk",
        "count" : 1,
        "unit" : "gal",
        "serving" : 1,
        "servingUnit" : "cups",
        "calories" : 137,
        "fat" : 4.9,
        "sodium": 145,
        "cholesterol": 20,
        "warnings": "Contains lactose, close to expiration"
    },

    "Cheese" : {
        "name" : "Cheese",
        "count" : 0.5,
        "unit" : "lb",
        "serving" : 1,
        "servingUnit" : "oz",
        "calories" : 110,
        "fat" : 9,
        "sodium": 180,
        "cholesterol": 30,
        "warnings": "Contains lactose"
    },

    "Soda" : {
        "name" : "Soda",
        "count" : 12,
        "unit" : "cans",
        "serving" : 1,
        "servingUnit" : "cans",
        "calories" : 150,
        "fat" : 0,
        "sodium": 15,
        "cholesterol": 0,
        "warnings" : "High in sugar"
    }
    
}
